<svg xmlns="http://www.w3.org/2000/svg" xmlns:xlink="http://www.w3.org/1999/xlink" width="80" height="80" viewBox="0 0 80 80">
  <defs>
    <clipPath id="clip-path">
      <rect id="Rettangolo_4248" data-name="Rettangolo 4248" width="80" height="80" fill="#5db3b0"/>
    </clipPath>
  </defs>
  <g id="Raggruppa_7097" data-name="Raggruppa 7097" clip-path="url(#clip-path)">
    <g id="Raggruppa_7096" data-name="Raggruppa 7096" transform="translate(6.67 17.025)">
      <g id="Raggruppa_7095" data-name="Raggruppa 7095" transform="translate(0 0)">
        <g id="Raggruppa_7094" data-name="Raggruppa 7094">
          <rect id="Rettangolo_4247" data-name="Rettangolo 4247" width="66" height="44" transform="translate(0.33 -0.025)" fill="none"/>
          <path id="Tracciato_1779" data-name="Tracciato 1779" d="M269.146,577.02v.314a6.139,6.139,0,0,1-.564,2.226,8.016,8.016,0,0,1-1.348,1.944,10.212,10.212,0,0,1-1.944,1.662,15.445,15.445,0,0,1-2.477,1.38,26.318,26.318,0,0,1-6.208,1.913,41.2,41.2,0,0,1-7.619.69,39.562,39.562,0,0,1-7.713-.721,24.846,24.846,0,0,1-6.3-1.975,16.61,16.61,0,0,1-2.477-1.411,9.324,9.324,0,0,1-1.913-1.724,7.019,7.019,0,0,1-1.286-2.007,5.752,5.752,0,0,1-.47-2.289,4.2,4.2,0,0,1,.031-.627l.031-11.162-12.2-5.518c-.031-.031-.063-.031-.094-.063a1.464,1.464,0,0,1-.439-.439,1.21,1.21,0,0,1,0-1.191,1.464,1.464,0,0,1,.439-.439c.031-.031.063-.031.094-.063l31.856-14.423a1.384,1.384,0,0,1,1,0l31.887,14.423c.031.031.063.031.094.063a1.464,1.464,0,0,1,.439.439,1.21,1.21,0,0,1,0,1.191,1.464,1.464,0,0,1-.439.439c-.031.031-.063.031-.094.063l-6.177,2.759v11.068l1.16,2.258a1.2,1.2,0,0,1,0,1.066l-1.223,2.414c0,.031-.031.031-.031.063a1.464,1.464,0,0,1-.439.439,1.21,1.21,0,0,1-1.191,0,1.465,1.465,0,0,1-.439-.439c0-.031-.031-.031-.031-.063l-1.191-2.414a1.2,1.2,0,0,1,0-1.066l1-2.007V563.568l-3.7,1.662Zm-37.907-.533a.4.4,0,0,1-.031.188v.345a3.5,3.5,0,0,0,.282,1.38,4.53,4.53,0,0,0,.878,1.348,7.922,7.922,0,0,0,1.505,1.348,14.806,14.806,0,0,0,2.1,1.223,26.309,26.309,0,0,0,5.738,1.787,37.791,37.791,0,0,0,7.274.658,36.242,36.242,0,0,0,7.149-.658,24.481,24.481,0,0,0,5.707-1.724,14.747,14.747,0,0,0,2.1-1.191,9.244,9.244,0,0,0,1.536-1.286,5.254,5.254,0,0,0,.941-1.348,4.1,4.1,0,0,0,.345-1.317v-.219l.031-10.692-17.245,7.807a1.384,1.384,0,0,1-1,0L231.27,566.3Zm17.809-4.766,20.349-9.187-20.663-2.414a1.374,1.374,0,0,1-.6-.219,1.509,1.509,0,0,1-.376-.5.966.966,0,0,1-.094-.6,1.113,1.113,0,0,1,.251-.6,1.388,1.388,0,0,1,.47-.376.965.965,0,0,1,.6-.094l24.676,2.853,4.39-1.975-29-13.106-28.971,13.106Z" transform="translate(-215.897 -543)" fill="#5db3b0" fill-rule="evenodd"/>
        </g>
      </g>
    </g>
  </g>
</svg>
